# Blender 3.6.10
# www.blender.org
mtllib pcity_nodes_curb.mtl
o Cube
v 0.500000 -0.312500 -0.500000
v 0.500000 -0.500000 -0.500000
v -0.500000 -0.312500 -0.500000
v -0.500000 -0.500000 -0.500000
v -0.500000 -0.312500 -0.281250
v 0.500000 -0.500000 -0.281250
v -0.500000 -0.500000 -0.281250
v 0.500000 -0.312500 -0.281250
vn -1.0000 -0.0000 -0.0000
vn -0.0000 -0.0000 -1.0000
vn -0.0000 1.0000 -0.0000
vn -0.0000 -1.0000 -0.0000
vn 1.0000 -0.0000 -0.0000
vn -0.0000 -0.0000 1.0000
vt 0.218750 0.187500
vt 0.218750 0.000000
vt 0.437500 0.000000
vt 0.437500 0.187500
vt 1.000000 0.406250
vt 1.000000 0.593750
vt 0.000000 0.593750
vt 0.000000 0.406250
vt 1.000000 0.812500
vt -0.000000 0.812500
vt -0.000000 0.187500
vt 1.000000 0.187500
vt -0.000000 -0.000000
vt 1.000000 1.000000
vt -0.000000 1.000000
s 0
usemtl Material
f 7/1/1 5/2/1 3/3/1 4/4/1
f 4/5/2 3/6/2 1/7/2 2/8/2
f 1/7/3 3/6/3 5/9/3 8/10/3
f 4/5/4 2/8/4 6/11/4 7/12/4
f 2/2/5 1/1/5 8/11/5 6/13/5
f 7/14/6 6/15/6 8/10/6 5/9/6
